…
    length(table(bdproto$family_id))

    ## [1] 75

    length(table(segbo_enriched$family_id))

    ## [1] 113

Let’s see what’s shared across all three.

    families_shared <- as_tibble(union(phoible_enriched$family_id, bdproto$family_id))
    families_shared <- as_tibble(union(families_shared$value, segbo_enriched$family_id))
    families_shared

    ## # A tibble: 208 x 1
    ##    value   
    ##    <chr>   
    ##  1 indo1319
    ##  2 afro1255
    ##  3 cari1283
    ##  4 sepi1257
    ##  5 atla1278
    ##  6 abkh1242
    ##  7 aust1307
    ##  8 nduu1242
    ##  9 araw1281
    ## 10 nilo1247
    ## # … with 198 more rows
…
